…
#find highest paying degrees
courses %>%
  group_by(DegreeTitle) %>%
  summarize(meanWage = mean(MedWage5yr, na.rm = TRUE)) %>%
  arrange(desc(meanWage))

## # A tibble: 434 × 2
##    DegreeTitle                        meanWage
##    <chr>                                 <dbl>
##  1 BUSINESS ANALYTICS                  107783 
##  2 ELECTRICAL & POWER TRANSMISSION     103802 
##  3 ARCHITECTURAL ENGINEERING           103643 
##  4 ELECTRONICS ENGINEERING TECHNOLOGY  102894 
##  5 COMPUTER ENGINEERING                101775.
##  6 APPLIED COMPUTING                   101604 
##  7 ELECTRIC POWER AND DISTRIBUTION     101415 
##  8 ELECTRICAL ENGINEERING               99578 
##  9 COMPUTER SCIENCE                     95220.
## 10 PETROLEUM ENGINEERING                94728 
## # ℹ 424 more rows

#find which degrees/programs have highest wage vs cost
courses %>%
  group_by(DegreeTitle) %>%
  summarize(meanValue = mean(Med5YrValue, na.rm = TRUE), meanWage = mean(MedWage5yr, na.rm = TRUE), n = n()) %>%
  filter(n > 4) %>%
  arrange(desc(meanValue))

## # A tibble: 39 × 4
##    DegreeTitle                                          meanValue meanWage     n
##    <chr>                                                    <dbl>    <dbl> <int>
##  1 COSMETOLOGY                                               6.07   38076      5
##  2 LIBERAL ARTS AND SCIENCES, GENERAL STUDIES AND HUMA…      5.50   43052.    10
##  3 WELDING TECHNOLOGY                                        5.40   51550      7
##  4 AA, AS, AGS DEGREES (TRANSFER DEGREES)                    5.10   43240.    17
##  5 AUTOMOTIVE TECHNOLOGY                                     4.66   56143.    13
##  6 ELECTRICAL TECHNOLOGY                                     4.36   53807.     6
##  7 DIESEL TECHNOLOGY                                         4.24   54065.     5
##  8 PHYSICAL THERAPIST ASSISTANT                              4.12   49155      5
##  9 LIBERAL STUDIES                                           4.05   41600.     9
## 10 SURGICAL TECHNOLOGY                                       3.93   48051.     5
## # ℹ 29 more rows
…
